
digraph AGCtransitions
{
  size="3.0,1.0";
  fontname="Helvetica";
  fontsize="18";
  //label="AGC Transitions";
  rankdir="LR";
  node [shape="record" style="filled" fillcolor="lavender"
	fontname="Helvetica"];

    AGC -> agcS;
    agcS -> agcM;
    agcM -> agcF;
    agcF -> AGC;
}
