
digraph msgCallbackFlow
{
  size="4.8,7.0";
  fontname="Helvetica";
  fontsize="18";
  //label="msgCallback Flow";
  //rankdir="LR";
  node [style="filled" fillcolor="azure" fontname="Helvetica" ];
  Keyer  [shape="record" style="filled" fillcolor="antiquewhite" fontname="Helvetica" label="Keyer\nSee graph below" ];
  Memories  [shape="record" style="filled" fillcolor="antiquewhite" fontname="Helvetica" label="Memories\nSee graph below" ];
  DSP [shape="record" style="filled" fillcolor="antiquewhite" fontname="Helvetica" label="DSP\nSee graph below" ];
  Home [shape="record" style="filled" fillcolor="antiquewhite" fontname="Helvetica" label="Home\nSee graph below" ];
  "ID=OK?" -> "nNewPage=1" [label="Yes"];
  "ID=OK?" -> "case page" [label="No"];
  "nNewPage=1" -> "return 1";
  "case page"->Keyer;
  "case page"->DSP;
  "case page"->Memories;
  "case page"->Home;

   Home -> "endcase page";
   Keyer -> "endcase page";
   DSP -> "endcase page";
   Memories -> "endcase page";

   "endcase page" -> "return 1";
};

